An introduction to the qtlr package
…
By default, fitBinomialQtlModel returns a tibble containing the concatenated posterior samples obtained from JAGS in tidy form.

m
#> # A tibble: 240,000 x 5
#>    Chain Sample Parameter Index Value
#>    <int>  <dbl> <chr>     <int> <dbl>
#>  1     1   5001 p             1 0.928
#>  2     1   5001 p             2 0.568
#>  3     1   5001 p             3 0.612
#>  4     1   5001 p             4 0.644
#>  5     1   5001 p             5 0.524
#>  6     1   5001 p             6 0.659
#>  7     1   5001 p             7 0.684
#>  8     1   5001 p             8 0.670
#>  9     1   5001 p             9 0.578
#> 10     1   5001 p            10 0.531
#> # … with 239,990 more rows
…
